\babel@toc {english}{}\relax 
\contentsline {chapter}{\numberline {1}How to use Modvege software}{1}{chapter.1}%
\contentsline {chapter}{\numberline {2}How to use Modvege as a function}{3}{chapter.2}%
\contentsline {chapter}{\numberline {3}How to contribute}{5}{chapter.3}%
\contentsline {chapter}{\numberline {4}Other related pasture models}{7}{chapter.4}%
\contentsline {chapter}{\numberline {5}Modvege}{9}{chapter.5}%
\contentsline {section}{\numberline {5.1}lib\_read\_input\_files module}{9}{section.5.1}%
\contentsline {section}{\numberline {5.2}lib\_read\_output\_files module}{10}{section.5.2}%
\contentsline {section}{\numberline {5.3}lib\_write\_output\_files module}{11}{section.5.3}%
\contentsline {section}{\numberline {5.4}lib\_modvege module}{12}{section.5.4}%
\contentsline {section}{\numberline {5.5}modvege module}{21}{section.5.5}%
\contentsline {chapter}{\numberline {6}Indices and tables}{23}{chapter.6}%
\contentsline {chapter}{Python Module Index}{25}{section*.40}%
\contentsline {chapter}{Index}{27}{section*.41}%
