\relax 
\providecommand\hyper@newdestlabel[2]{}
\providecommand\babel@aux[2]{}
\@nameuse{bbl@beforestart}
\providecommand\HyperFirstAtBeginDocument{\AtBeginDocument}
\HyperFirstAtBeginDocument{\ifx\hyper@anchor\@undefined
\global\let\oldnewlabel\newlabel
\gdef\newlabel#1#2{\newlabelxx{#1}#2}
\gdef\newlabelxx#1#2#3#4#5#6{\oldnewlabel{#1}{{#2}{#3}}}
\AtEndDocument{\ifx\hyper@anchor\@undefined
\let\newlabel\oldnewlabel
\fi}
\fi}
\global\let\hyper@last\relax 
\gdef\HyperFirstAtBeginDocument#1{#1}
\providecommand\HyField@AuxAddToFields[1]{}
\providecommand\HyField@AuxAddToCoFields[2]{}
\babel@aux{english}{}
\newlabel{index::doc}{{}{1}{}{section*.2}{}}
\@writefile{toc}{\contentsline {chapter}{\numberline {1}How to use Modvege software}{1}{chapter.1}\protected@file@percent }
\@writefile{lof}{\addvspace {10\p@ }}
\@writefile{lot}{\addvspace {10\p@ }}
\newlabel{readme:how-to-use-modvege-software}{{1}{1}{How to use Modvege software}{chapter.1}{}}
\newlabel{readme::doc}{{1}{1}{How to use Modvege software}{chapter.1}{}}
\@writefile{toc}{\contentsline {chapter}{\numberline {2}How to use Modvege as a function}{3}{chapter.2}\protected@file@percent }
\@writefile{lof}{\addvspace {10\p@ }}
\@writefile{lot}{\addvspace {10\p@ }}
\newlabel{readme:how-to-use-modvege-as-a-function}{{2}{3}{How to use Modvege as a function}{chapter.2}{}}
\@writefile{toc}{\contentsline {chapter}{\numberline {3}How to contribute}{5}{chapter.3}\protected@file@percent }
\@writefile{lof}{\addvspace {10\p@ }}
\@writefile{lot}{\addvspace {10\p@ }}
\newlabel{readme:how-to-contribute}{{3}{5}{How to contribute}{chapter.3}{}}
\@writefile{toc}{\contentsline {chapter}{\numberline {4}Other related pasture models}{7}{chapter.4}\protected@file@percent }
\@writefile{lof}{\addvspace {10\p@ }}
\@writefile{lot}{\addvspace {10\p@ }}
\newlabel{readme:other-related-pasture-models}{{4}{7}{Other related pasture models}{chapter.4}{}}
\gdef \LT@i {\LT@entry 
    {1}{111.48874pt}\LT@entry 
    {1}{222.1775pt}\LT@entry 
    {1}{111.08875pt}}
\@writefile{toc}{\contentsline {chapter}{\numberline {5}Modvege}{9}{chapter.5}\protected@file@percent }
\@writefile{lof}{\addvspace {10\p@ }}
\@writefile{lot}{\addvspace {10\p@ }}
\newlabel{modules:modvege}{{5}{9}{Modvege}{chapter.5}{}}
\newlabel{modules::doc}{{5}{9}{Modvege}{chapter.5}{}}
\@writefile{toc}{\contentsline {section}{\numberline {5.1}lib\_read\_input\_files module}{9}{section.5.1}\protected@file@percent }
\newlabel{lib_read_input_files:module-lib_read_input_files}{{5.1}{9}{lib\_read\_input\_files module}{section.5.1}{}}
\newlabel{lib_read_input_files:lib-read-input-files-module}{{5.1}{9}{lib\_read\_input\_files module}{section.5.1}{}}
\newlabel{lib_read_input_files::doc}{{5.1}{9}{lib\_read\_input\_files module}{section.5.1}{}}
\newlabel{lib_read_input_files:lib_read_input_files.read_params}{{5.1}{9}{lib\_read\_input\_files module}{section*.3}{}}
\@writefile{lot}{\contentsline {table}{\numberline {1}{Columns description\strut  }}{9}{table.5.1}\protected@file@percent }
\newlabel{lib_read_input_files:id1}{{1}{9}{Columns description\strut }{table.5.1}{}}
\newlabel{lib_read_input_files:lib_read_input_files.read_weather}{{5.1}{10}{lib\_read\_input\_files module}{section*.4}{}}
\@writefile{lot}{\contentsline {table}{\numberline {2}{\ignorespaces Columns description}}{10}{table.5.2}\protected@file@percent }
\newlabel{lib_read_input_files:id2}{{2}{10}{lib\_read\_input\_files module}{table.5.2}{}}
\@writefile{toc}{\contentsline {section}{\numberline {5.2}lib\_read\_output\_files module}{10}{section.5.2}\protected@file@percent }
\newlabel{lib_read_output_files:module-lib_read_output_files}{{5.2}{10}{lib\_read\_output\_files module}{section.5.2}{}}
\newlabel{lib_read_output_files:lib-read-output-files-module}{{5.2}{10}{lib\_read\_output\_files module}{section.5.2}{}}
\newlabel{lib_read_output_files::doc}{{5.2}{10}{lib\_read\_output\_files module}{section.5.2}{}}
\newlabel{lib_read_output_files:lib_read_output_files.read_out}{{5.2}{10}{lib\_read\_output\_files module}{section*.5}{}}
\@writefile{lot}{\contentsline {table}{\numberline {3}{\ignorespaces Columns description}}{11}{table.5.3}\protected@file@percent }
\newlabel{lib_read_output_files:id1}{{3}{11}{lib\_read\_output\_files module}{table.5.3}{}}
\@writefile{toc}{\contentsline {section}{\numberline {5.3}lib\_write\_output\_files module}{11}{section.5.3}\protected@file@percent }
\newlabel{lib_write_output_files:module-lib_write_output_files}{{5.3}{11}{lib\_write\_output\_files module}{section.5.3}{}}
\newlabel{lib_write_output_files:lib-write-output-files-module}{{5.3}{11}{lib\_write\_output\_files module}{section.5.3}{}}
\newlabel{lib_write_output_files::doc}{{5.3}{11}{lib\_write\_output\_files module}{section.5.3}{}}
\newlabel{lib_write_output_files:lib_write_output_files.plot}{{5.3}{11}{lib\_write\_output\_files module}{section*.6}{}}
\@writefile{lot}{\contentsline {table}{\numberline {4}{\ignorespaces Columns description from out\_cut.csv}}{11}{table.5.4}\protected@file@percent }
\newlabel{lib_write_output_files:id1}{{4}{11}{lib\_write\_output\_files module}{table.5.4}{}}
\@writefile{toc}{\contentsline {section}{\numberline {5.4}lib\_modvege module}{12}{section.5.4}\protected@file@percent }
\newlabel{lib_modvege:module-lib_modvege}{{5.4}{12}{lib\_modvege module}{section.5.4}{}}
\newlabel{lib_modvege:lib-modvege-module}{{5.4}{12}{lib\_modvege module}{section.5.4}{}}
\newlabel{lib_modvege::doc}{{5.4}{12}{lib\_modvege module}{section.5.4}{}}
\newlabel{lib_modvege:lib_modvege.aet}{{5.4}{12}{lib\_modvege module}{section*.7}{}}
\newlabel{lib_modvege:lib_modvege.avDefoliationBiomass}{{5.4}{12}{lib\_modvege module}{section*.8}{}}
\newlabel{lib_modvege:lib_modvege.cut}{{5.4}{13}{lib\_modvege module}{section*.9}{}}
\newlabel{lib_modvege:lib_modvege.defoliation}{{5.4}{13}{lib\_modvege module}{section*.10}{}}
\newlabel{lib_modvege:lib_modvege.dr_update}{{5.4}{14}{lib\_modvege module}{section*.11}{}}
\newlabel{lib_modvege:lib_modvege.dv_update}{{5.4}{14}{lib\_modvege module}{section*.12}{}}
\newlabel{lib_modvege:lib_modvege.exeCut}{{5.4}{14}{lib\_modvege module}{section*.13}{}}
\newlabel{lib_modvege:lib_modvege.exeDefoliation}{{5.4}{15}{lib\_modvege module}{section*.14}{}}
\newlabel{lib_modvege:lib_modvege.exeDefoliationByBiomass}{{5.4}{15}{lib\_modvege module}{section*.15}{}}
\newlabel{lib_modvege:lib_modvege.fPARi}{{5.4}{15}{lib\_modvege module}{section*.16}{}}
\newlabel{lib_modvege:lib_modvege.fTemperature}{{5.4}{15}{lib\_modvege module}{section*.17}{}}
\newlabel{lib_modvege:lib_modvege.fWaterStress}{{5.4}{15}{lib\_modvege module}{section*.18}{}}
\newlabel{lib_modvege:lib_modvege.fclai}{{5.4}{15}{lib\_modvege module}{section*.19}{}}
\newlabel{lib_modvege:lib_modvege.fsea}{{5.4}{16}{lib\_modvege module}{section*.20}{}}
\newlabel{lib_modvege:lib_modvege.getAvailableBiomassForCut}{{5.4}{16}{lib\_modvege module}{section*.21}{}}
\newlabel{lib_modvege:lib_modvege.getAverageHeight}{{5.4}{16}{lib\_modvege module}{section*.22}{}}
\newlabel{lib_modvege:lib_modvege.getHeight}{{5.4}{16}{lib\_modvege module}{section*.23}{}}
\newlabel{lib_modvege:lib_modvege.getOMDgr}{{5.4}{17}{lib\_modvege module}{section*.24}{}}
\newlabel{lib_modvege:lib_modvege.getOMDgv}{{5.4}{17}{lib\_modvege module}{section*.25}{}}
\newlabel{lib_modvege:lib_modvege.getSumTemperature}{{5.4}{17}{lib\_modvege module}{section*.26}{}}
\newlabel{lib_modvege:lib_modvege.getTotalBiomass}{{5.4}{17}{lib\_modvege module}{section*.27}{}}
\newlabel{lib_modvege:lib_modvege.gr_update}{{5.4}{18}{lib\_modvege module}{section*.28}{}}
\newlabel{lib_modvege:lib_modvege.greenLimbsMass}{{5.4}{18}{lib\_modvege module}{section*.29}{}}
\newlabel{lib_modvege:lib_modvege.gv_update}{{5.4}{18}{lib\_modvege module}{section*.30}{}}
\newlabel{lib_modvege:lib_modvege.mk_dr_abscission}{{5.4}{19}{lib\_modvege module}{section*.31}{}}
\newlabel{lib_modvege:lib_modvege.mk_dv_abscission}{{5.4}{19}{lib\_modvege module}{section*.32}{}}
\newlabel{lib_modvege:lib_modvege.mk_env}{{5.4}{19}{lib\_modvege module}{section*.33}{}}
\newlabel{lib_modvege:lib_modvege.mk_gr_senescence}{{5.4}{19}{lib\_modvege module}{section*.34}{}}
\newlabel{lib_modvege:lib_modvege.mk_gv_senescence}{{5.4}{20}{lib\_modvege module}{section*.35}{}}
\newlabel{lib_modvege:lib_modvege.pgro}{{5.4}{20}{lib\_modvege module}{section*.36}{}}
\newlabel{lib_modvege:lib_modvege.rep}{{5.4}{20}{lib\_modvege module}{section*.37}{}}
\newlabel{lib_modvege:lib_modvege.updateSumTemperature}{{5.4}{20}{lib\_modvege module}{section*.38}{}}
\@writefile{toc}{\contentsline {section}{\numberline {5.5}modvege module}{21}{section.5.5}\protected@file@percent }
\newlabel{modvege:module-modvege}{{5.5}{21}{modvege module}{section.5.5}{}}
\newlabel{modvege:modvege-module}{{5.5}{21}{modvege module}{section.5.5}{}}
\newlabel{modvege::doc}{{5.5}{21}{modvege module}{section.5.5}{}}
\newlabel{modvege:modvege.modvege}{{5.5}{21}{modvege module}{section*.39}{}}
\@writefile{toc}{\contentsline {chapter}{\numberline {6}Indices and tables}{23}{chapter.6}\protected@file@percent }
\@writefile{lof}{\addvspace {10\p@ }}
\@writefile{lot}{\addvspace {10\p@ }}
\newlabel{index:indices-and-tables}{{6}{23}{Indices and tables}{chapter.6}{}}
\@writefile{toc}{\contentsline {chapter}{Python Module Index}{25}{section*.40}\protected@file@percent }
\@writefile{toc}{\contentsline {chapter}{Index}{27}{section*.41}\protected@file@percent }
\gdef \@abspage@last{31}
